﻿freq,0deg,1deg,2deg,5deg,10deg,30deg,90deg
100,2930,2930,2930,2990,2930,2930,2930
107.2267222,2503.757001,2509.797501,2514.331945,2529.10926,2506.396668,2512.752964,2483.198334
114.9756995,2131.03277,2130.972018,2090.972018,2171.57953,2090.972018,2051.944037,2063.981346
123.2846739,1820.036412,1844.306521,1799.342933,1895.036412,1721.459782,1785.036412,1753.844202
132.1941148,1533.431419,1502.088277,1502.088277,1492.235406,1484.176555,1560.953014,1539.661842
141.7474163,1281.920215,1252.525837,1253.84043,1253.84043,1262.062009,1295.657296,1207.577511
151.9911083,1060.177834,1045.133376,1050.266751,1050.088917,1045.133376,1086.903779,1008.231184
162.9750835,911.3301441,877.4235811,877.4235811,888.6157208,877.2117906,877.64783,845.3986646
174.75284,757.175008,738.168192,729.3068267,761.5840171,743.125576,742.1534133,743.0125886
187.3817423,623.4730309,611.6002783,626.5269691,643.8514555,611.6002783,634.327804,614.0439855
200.9233003,537.8053473,548,549.9221389,549.4519989,537.8053473,548,518
215.443469,457.1536756,475.1183294,455.8922054,463.669593,463.2521947,447.0768378,438.4840827
231.01297,394.93515,385.30307,382.954605,380.60614,390.61911,378.30307,368.954605
247.7076356,345.8926101,336.5077585,325.5847288,325.5847288,331.8001229,333.1772161,315.2923644
265.6087783,284.3912217,288.1011463,285.7824434,290.1593514,290.3227925,289.1736651,272.869276
284.8035868,251.5535437,251.6606886,246.5535437,246.8239598,254.7856526,243.173185,230.079053
305.3855509,221.2839769,223.4939709,221.3574152,204.8347639,221.1187408,220.8433473,209
327.4549163,190.7346322,190.7725419,193.6588128,190.5450837,193.6588128,195.1816946,193.7346322
351.1191734,172.9205511,172.9602755,174.8510332,164.0397245,176.8500439,169.9602755,176.3957233
376.4935807,158.1688064,156.6899072,158.3376129,158.759629,161.1688064,152.3798145,150.1963266
403.7017259,141.6491371,141.6491371,141.6463692,139.1491371,141.7789645,138.0994247,134.6779551
432.8761281,130.4462674,131.3861585,129.304194,126,131.3861585,126.4778505,128.5792378
464.1588834,123.4503489,117.32765,116.4256576,109.8940778,118.1698716,115.5165667,115.4304885
497.7023564,116.9236504,107.0992145,105.0992145,103.0992145,104.198429,99.36945017,99.22288823
533.6699231,108.3315799,98.23929661,93.92587818,85.95468717,87.55468717,83.73173016,82.73255679
572.2367659,100.8233192,91.09964256,82.91731064,76.27632341,75.43361964,72.65264681,73.22897022
613.5907273,96.04879007,83.9324883,76.38670778,67.49451297,65.73538262,60.29873246,60.26075713
657.9332247,93.66839341,76.45626019,67.61157439,58.77295402,57.11836322,51.91669384,48.61168568
705.4802311,90.52642944,71.68446245,63.9,52.00070523,49.20797553,43.9104509,43.64734429
756.4633276,89.8,69.29136212,60.4,47.46270649,43.97287565,37.83445884,38.56772597
811.1308308,88.1,67.7,57.45067624,43.8,38.40135247,33.82296439,33.0057135
869.7490026,88.1273762,65.2,54.62909661,40.79772354,34.63473855,29.33574278,28.76311899
932.6033469,88.2,64,52.79075696,38.25678476,31.56285789,27.16983266,25.92336253
1000,88.2,63.8,50.6,36.18333333,29.37058824,24.18333333,22.43265306
1072.267222,88.2,62.8,50.02442593,34.25465556,27.2866389,21.15465556,20.54709815
1149.756995,88.2,62.8,48.20729014,33.10729014,24.90607512,19.60243005,18.10364507
1232.846739,89.9,61.6,46.80729891,30.92627717,23.5,17.37153261,16.05729891
1321.941148,89.9,60.5,46.5,30.1,21.8,16.44176555,14.37088277
1417.474163,89.95274907,60.5,46.5,29,21,14.85022146,12.94209728
1519.911083,91.01697682,60.5,46.5,28.15222293,20.00088917,13.82920655,11.9
1629.750835,91.7,61.7,45.6,27.69270486,19.20249165,13.15124583,11.17453938
1747.5284,91.7,61.7,45.56830147,27.33726333,18.61647733,12.00393,10.383144
1873.817423,91.7,61.7,45.03655822,26.8787921,17.95506819,11.47455051,9.613855172
2009.233003,91.709233,61.7,45.36613598,26.25383499,17.4,10.68153399,8.811533995
2154.43469,91.8,61.7,45.6,25.52782655,16.65339186,10.2301866,8.470904496
2310.1297,91.8,61.75021617,44.8,25.73261278,16.5,9.8739443,7.8893515
2477.076356,92.58972705,61.8,45.7,25.4,16.30974548,9.453283658,7.65487274
2656.087783,95.35380486,61.8,45.7,25.4,16.06956109,9.282339993,7.338257013
2848.035868,95.4,62.16071737,45.7,25.4,15.9,9.039055748,7.099262241
3053.855509,97.2,63,45.7,25.05870724,15.78459534,8.926572881,6.79
3274.549163,97.2,63,45.7,25.5,15.6,8.571943814,6.54
3511.191734,97.2,63,45.7,25.82797934,15.6,8.296010332,6.266424797
3764.935807,98.72987796,63,45.7,26,15.6,8.05,6.066709462
4037.017259,99.1,63,46.53684467,25.96491371,15.6,8.187544772,5.938860305
4328.761281,99.13250752,64.18513537,45.7,25.5,15.6,8.06,5.934458377
4641.588834,101,65.43165927,46.6,25.5,15.6,8.06,5.85
4977.023564,103,66.44047129,48.4,25.5,15.6,8.06,5.85
5336.699231,104.7547287,66.7,48.4,26,15.6,7.91,5.791369154
5722.367659,106.2105046,67.41420596,48.4,26.10087538,15.9,7.91,5.96
6135.907273,107.4787636,68.62581571,49.83325703,26.5,16.06534772,7.91,5.757953637
6579.332247,110.32443,69.33666531,50.3,27,16.2,7.91,5.85
7054.802311,111,72,51.3,27.5,16.2,7.974353621,5.769461678
7564.633276,113,72,52.3,27.67524681,16.5,8.22,5.85
8111.308308,116.0261662,74.8,52.95968382,28.6,17.2,8.22,5.856596838
8697.490026,121.161706,77.7,55.17490026,29.48223876,17.59404287,8.38,5.86
9326.033469,124.8590204,80.7,57.0534449,30.59702041,17.95642449,8.54,5.86
10000,129.5,83.9,60.01428571,31.4,18.5,8.634285714,6.056842105
10722.67222,134.3400833,88.28963665,61.07206664,32.98967639,19.29068888,8.916275552,6.118429221
11497.56995,145,92.2,65.6,35.2,20.4,9.331956307,6.239027982
12328.46739,151.1897826,97.6,70.49002538,38.09963588,21.56554783,9.951386958,6.32
13219.41148,164.9254865,106.4627432,75.62097769,41.04529346,22.50999841,10.73882297,6.752842904
14174.74163,179,117.7474163,83.73401642,44.79793303,25.03685407,11.39123605,7.379793303
15199.11083,199.4133285,131.9911083,99.25896052,54.38221659,29.69777707,12.74888854,8.238621786
16297.50835,221.9750835,162.9252504,117.9439378,63.27010015,35.88380425,14.64439378,9.169252504
17475.284,250.69105,186,147.62926,80.34389,44.802272,16.937074,10.825852
18738.17423,269.4543557,226.7634846,184.7634846,107.5316379,60.70892014,25.1672196,14.37634846
20092.33003,281,258.3082506,230.3082506,151.6165013,93.96194046,35.84645535,20.52330026
21544.3469,287,278.4057817,266,211.8492507,140.1756318,62.81595283,35.93151769
23101.297,287,281,270.0968045,206.6493733,147.2857766,61.37535698,36.38832699
24770.76356,287,271,247.9103037,164.5847288,106.0564859,42.22259435,25.82160084
26560.87783,286.47819,254.9853695,219.3042534,139.3042534,79.27824434,34.97196782,20.4
28480.35868,276,237,200,123.343723,71.06383428,30.3,17.21964132
30538.55509,274.4611132,233,186.4608368,115.0326997,67.1,28.1,15.7
32745.49163,271,229.1982123,186,112.1557382,67.1,27.6,15.56363153
35111.91734,271.9174039,233,193,117.2476694,67.91098509,27.65451972,15.46269422
37649.35807,272.3853226,245.1169758,206.2165162,129.3637662,77.12724676,32.91041372,17.82339517
40370.17259,276.7293111,257.7636121,233.9454033,156.1695431,93.05478676,40.18615002,21.31051776
43287.61281,282,271,248.5350139,180.5009025,114.2513537,50.31292868,26.97522562
46415.88834,285.8411166,276.7599302,273.1588834,216.9271067,147.5364467,64.33963472,38.44299503
49770.23564,287,287,277.585297,239.0535346,193.9364752,126.5217723,71.97095247
53366.99231,287,287,282,265.7642308,260.104077,210.6325386,153.7207042
57223.67659,287,287,287,282,277,282,278.8486042
61359.07273,287,287,287,282,283.0066233,287,287
65793.32247,287,283.6236734,287,282,270.2473469,237.2671014,203.4666123
70548.02311,287,287,279.8001444,280.682285,244.1595956,153.3997112,113.479509
75646.33276,284.9755517,282,282,269.5203736,215.0162989,107.0244483,64.16507645
81113.08308,288,282,282,252,193,92.89432743,54.97780431
86974.90026,283.499456,281.3454756,282,249.9437093,187.4314508,92.00086115,51.22986767
93260.33469,288,288,282,252,185.3444195,92.06983266,50.25792628
100000,288,288,282,252,185.3444195,92.06983266,50.25792628
